…
------------------------------------------------------------------------

### IGNORE ALL THIS STUFF I’M EXPERIMENTING

``` r
opt |>
  group_by(team_name, week) |>
  reframe(pct_of_pts = round(pts / sum(pts), 3)) |>
  group_by(team_name, week) |>
  slice_max(pct_of_pts, n = 1, with_ties = F) |>
  ungroup() |>
  arrange(desc(pct_of_pts))
```

    ## # A tibble: 40 × 3
    ##    team_name                   week pct_of_pts
    ##    <chr>                      <dbl>      <dbl>
    ##  1 Šæñ Fräńßīśčo 4D9RRRz          1      0.261
    ##  2 Henry Ruggs Driving School     1      0.25 
    ##  3 Injured Reserves               3      0.227
    ##  4 Henry Ruggs Driving School     4      0.225
    ##  5 Injured Reserves               2      0.212
    ##  6 Shock Squad                    4      0.212
    ##  7 Henry Ruggs Driving School     3      0.21 
    ##  8 Big Digg Hurts                 1      0.207
    ##  9 Burlington Throat Factory      2      0.207
    ## 10 He's Litewally Gwiddying       4      0.207
    ## # ℹ 30 more rows

``` r
opt |>
  mutate(player = str_remove_all(player, "\n.*")) |>
  group_by(player) |>
  summarise(pts = sum(pts))
```

    ## # A tibble: 171 × 2
    ##    player               pts
    ##    <chr>              <dbl>
    ##  1 49ers D/ST         27   
    ##  2 A.J. Brown         67.9 
    ##  3 AJ Dillon          15.8 
    ##  4 Aaron Jones        27.6 
    ##  5 Aaron Rodgers       0   
    ##  6 Adam Thielen       11.7 
    ##  7 Aidan O'Connell     9.82
    ##  8 Alexander Mattison 40.6 
    ##  9 Allen Lazard       27.9 
    ## 10 Alvin Kamara       14.9 
    ## # ℹ 161 more rows
…
